1|N|1111|06/11/2018|01/01/3000|~|Lopez Rivera|Trend|H|~|~|-10152|~|~|~|~|-10001|~|01/01/2000|5|111111111|-10001*?*2|N|1111|06/18/2018|01/01/3000|13|Urb Mercedita|Calle Tulipanes 50|~|Ponce|45|~|~|~|00717|5|~|True*?*
3|N|1111|06/11/2018|22|123-456-7890|0*?*4|N|1111|True|testw@coopervision.test*?*6|N|1111|06/11/2018|06/15/2018|-10131|1|~|-10155|06/11/2018|-10001|N|06/11/2018|06/11/2018|06/11/2018*?*7|N|1111|06/11/2018|01/01/3000|FRPOHAVASML|-10001|-10191|40|~*?*  
8|N|1111|06/11/2018|01/01/3000|14|14.52|-10103|105000|12|1|-10001 *?*11|N|1111|06/11/2018|01/01/3000|~|2238|-10502|~|~|-11039
