1|N|1111|06/27/2018|01/01/3000|~|~|~|~|~|~|~|~|~|~|~|~|~|~|~|~|~*?*2|U|1111|06/27/2018|01/01/3000|~|Las Flores|Calle Rosa 25|~|~|~|~|~|~|~|~|~|True*?*
3|U|1111|06/27/2018|~|000-01-0001|0*?*4|U|1111|True|testw2@coopervision.test*?*6|N|1111|06/27/2018|01/01/3000|-10131|~|6|~|~|-10001|~|~|06/27/2018|06/27/2018*?*7|N|1111|06/27/2018|01/01/3000|SHSPLETTII1|20|~|~|2091*?*
8|N|1111|06/27/2018|01/01/3000|~|25.00|~|~|24|~|~|~|2080*?*11|N|1111|06/27/2018|01/01/3000|~|~|~|~|~|~*?*11|N|1111|06/29/2018|01/01/3000|~|2238|-10500|~|~|-11039

